…
  partyTypeID = col_double(),
  partyType = col_character(),
  partyID = col_double(),
  persons = col_double(),
  personList = col_character(),
  tripTypeID = col_double(),
  tripType = col_character(),
  leg = col_character(),
  startTaz = col_double(),
  endTaz = col_double(),
  time = col_double(),
  skim = col_double(),
  mode = col_character()
)
# A tibble: 1,752 x 1
   id   
   <chr>
 1 300-0
 2 0-109
 3 300-0
 4 0-109
 5 109-0
 6 0-302
 7 302-0
 8 0-109
 9 109-0
10 0-302
# ... with 1,742 more rows
…
